lieu;lat;lon
Avenue de l'Europe;43.523878;5.434856
Avenue Gambetta;43.523955;5.455145
Boulevard des Poilus;43.526733;5.459557
Avenue Victor Hugo;43.523106;5.445659
Avenue de la République;43.528912;5.439549
Avenue Gaston Berger;43.513384;5.450235
Cours Mirabeau;43.526404;5.446266
Pont de l'Arc;43.511227;5.442548
Avenue des Belges;43.524141;5.443142
Place Bellegarde (rue Mignet);43.531952;5.450841
Carrefour d'Orbitelle;43.523002;5.449821
Avenue du Club Hippique;43.514922;5.434068
Avenues Malacrida - Mauriat - Infirmeries;43.514302;5.463347
Cours des Arts et Métiers - Nostradamus;43.531099;5.456478
Avenues Schumann -Churchill;43.519358;5.446601
Avenues Pagnol - Europe;43.525186;5.423857
